show_shareplot — show_shareplot • landscapetools
…
# get data frame with results back
result <- show_shareplot(classified_landscape, new_points, 10, 50, return_df = TRUE)
result$share_df
#> # A tibble: 30 x 4
#>    id          layer  freq buffer
#>    <chr>       <fct> <int>  <dbl>
#>  1 Point ID: 1 1        80     10
#>  2 Point ID: 2 1        38     10
#>  3 Point ID: 1 2       236     10
#>  4 Point ID: 2 2       266     10
#>  5 Point ID: 1 3         0     10
#>  6 Point ID: 2 3        12     10
#>  7 Point ID: 1 1       292     20
#>  8 Point ID: 2 1       184     20
#>  9 Point ID: 1 2       964     20
#> 10 Point ID: 2 2      1006     20
#> # … with 20 more rows
…
